…
### Decomposing

Fitted FASSTER models can be decomposed to provide a description of how
the underlying states function. Decomposing a FASSTER model provides
aggregates of its components such as trends and seasonalities.

These components can accessed from a fitted model using the
`components()` function:

``` r
fit %>% 
  components
#> # A tsibble: 72 x 3 [1M]
#>       index `poly(1)` `trig(12)`
#>       <mth>     <dbl>      <dbl>
#>  1 1973 Jan     9740.     -795. 
#>  2 1973 Feb     9754.    -1546. 
#>  3 1973 Mar     9719.     -758. 
#>  4 1973 Apr     9706.     -536. 
#>  5 1973 May     9693.      322. 
#>  6 1973 Jun     9694.      802. 
#>  7 1973 Jul     9830.     1669. 
#>  8 1973 Aug     9755.      974. 
#>  9 1973 Sep     9761.      -65.7
#> 10 1973 Oct     9768.      233. 
#> # ... with 62 more rows
```

``` r
elec_fit %>%
  components
#> # A tsibble: 2,832 x 7 [30m]
#>    index               `I(Temperature^… Temperature `WorkDay_0/poly…
#>    <dttm>                         <dbl>       <dbl>            <dbl>
#>  1 2014-01-01 00:00:00         0.000512     -0.0189             1.55
#>  2 2014-01-01 00:30:00         0.000512     -0.0189             1.55
#>  3 2014-01-01 01:00:00         0.000512     -0.0189             1.55
#>  4 2014-01-01 01:30:00         0.000512     -0.0189             1.55
#>  5 2014-01-01 02:00:00         0.000510     -0.0188             1.55
#>  6 2014-01-01 02:30:00         0.000509     -0.0186             1.54
#>  7 2014-01-01 03:00:00         0.000510     -0.0187             1.54
#>  8 2014-01-01 03:30:00         0.000509     -0.0187             1.53
#>  9 2014-01-01 04:00:00         0.000521     -0.0195             1.54
#> 10 2014-01-01 04:30:00         0.000505     -0.0184             1.52
#> # ... with 2,822 more rows, and 3 more variables: `WorkDay_0/trig(48,
#> #   16)` <dbl>, `WorkDay_1/poly(1)` <dbl>, `WorkDay_1/trig(48, 16)` <dbl>
```
…
