Fast Additive Switching of Seasonality, Trend, and Exogenous Regressors • fasster
…
Decomposing

Fitted FASSTER models can be decomposed to provide a description of how the underlying states function. Decomposing a FASSTER model provides aggregates of its components such as trends and seasonalities.

These components can accessed from a fitted model using the components() function:

fit %>% 
  components()
#> # A dable: 72 x 5 [1M]
#> # Key:     .model [1]
#> # :        value = `fourier(12)` + `trend(1)`
#>    .model     index value `fourier(12)` `trend(1)`
#>    <chr>      <mth> <dbl>         <dbl>      <dbl>
#>  1 fasster 1973 Jan  9007        -795.       9740.
#>  2 fasster 1973 Feb  8106       -1546.       9754.
#>  3 fasster 1973 Mar  8928        -758.       9719.
#>  4 fasster 1973 Apr  9137        -536.       9706.
#>  5 fasster 1973 May 10017         322.       9693.
#>  6 fasster 1973 Jun 10826         802.       9694.
#>  7 fasster 1973 Jul 11317        1669.       9830.
#>  8 fasster 1973 Aug 10744         974.       9755.
#>  9 fasster 1973 Sep  9713         -65.7      9761.
#> 10 fasster 1973 Oct  9938         233.       9768.
#> # ℹ 62 more rows

elec_fit %>%
  components()
#> # A dable: 2,880 x 9 [30m] <Australia/Melbourne>
#> # Key:     .model [1]
#> # :        log(Demand) = `WorkDay_FALSE/fourier(48, 16)` +
#> #   `WorkDay_FALSE/trend(1)` + `WorkDay_TRUE/fourier(48, 16)` +
#> #   `WorkDay_TRUE/trend(1)` + Temperature + `I(Temperature^2)`
#>    .model  Time                `log(Demand)` `WorkDay_FALSE/fourier(48, 16)`
#>    <chr>   <dttm>                      <dbl>                           <dbl>
#>  1 fasster 2012-01-01 00:00:00          8.39                        -0.00345
#>  2 fasster 2012-01-01 00:30:00          8.36                        -0.0234 
#>  3 fasster 2012-01-01 01:00:00          8.31                        -0.0971 
#>  4 fasster 2012-01-01 01:30:00          8.26                        -0.105  
#>  5 fasster 2012-01-01 02:00:00          8.30                        -0.117  
#>  6 fasster 2012-01-01 02:30:00          8.26                        -0.0812 
#>  7 fasster 2012-01-01 03:00:00          8.21                        -0.251  
#>  8 fasster 2012-01-01 03:30:00          8.18                        -0.144  
#>  9 fasster 2012-01-01 04:00:00          8.14                        -0.374  
#> 10 fasster 2012-01-01 04:30:00          8.12                        -0.202  
#> # ℹ 2,870 more rows
#> # ℹ 5 more variables: `WorkDay_FALSE/trend(1)` <dbl>,
#> #   `WorkDay_TRUE/fourier(48, 16)` <dbl>, `WorkDay_TRUE/trend(1)` <dbl>,
#> #   Temperature <dbl>, `I(Temperature^2)` <dbl>
…
