…
``` r
library(tsibble)
library(dplyr)

# Create data with missing values
deaths_na <- as_tsibble(mdeaths) |>
  mutate(value = if_else(row_number() %in% c(10, 20, 30), NA_real_, value))

# Fit model
fit <- deaths_na |>
  model(FASSTER(value ~ trend(1) + fourier(12)))

# Interpolate missing values
interpolate(fit, deaths_na)
#> # A tsibble: 72 x 2 [1M]
#>       index value
#>       <mth> <dbl>
#>  1 1974 Jan 2134 
#>  2 1974 Feb 1863 
#>  3 1974 Mar 1877 
#>  4 1974 Apr 1877 
#>  5 1974 May 1492 
#>  6 1974 Jun 1249 
#>  7 1974 Jul 1280 
#>  8 1974 Aug 1131 
#>  9 1974 Sep 1209 
#> 10 1974 Oct 1355.
#> # ℹ 62 more rows
```
