Introduction to FASSTER • fasster
…
trend(2) - separate level and trend switched before and
after 1970

fourier("year") - annual seasonal pattern with Fourier
terms

Decomposition

FASSTER provides model-based decomposition of the time series
components:

components(fit)
#> # A dable: 208 x 6 [1Q]
#> # Key:     .model [1]
#> # :        log(Gas) = `(year(Quarter) < 1970)_TRUE/trend(2)` + `(year(Quarter)
#> #   < 1970)_FALSE/trend(2)` + `fourier("year")`
#>    .model  Quarter `log(Gas)` (year(Quarter) < 1970)_TR…¹ (year(Quarter) < 197…²
#>    <chr>     <qtr>      <dbl>                       <dbl>                  <dbl>
#>  1 fasster 1956 Q1       1.61                        1.75                  -4.43
#>  2 fasster 1956 Q2       1.79                        1.78                  -4.31
#>  3 fasster 1956 Q3       1.95                        1.68                  -4.19
#>  4 fasster 1956 Q4       1.79                        1.77                  -4.24
#>  5 fasster 1957 Q1       1.61                        1.86                  -4.43
#>  6 fasster 1957 Q2       1.95                        1.79                  -3.34
#>  7 fasster 1957 Q3       1.95                        1.88                  -3.22
#>  8 fasster 1957 Q4       1.79                        1.85                  -3.23
#>  9 fasster 1958 Q1       1.61                        1.84                  -3.15
#> 10 fasster 1958 Q2       1.95                        1.82                  -2.81
#> # ℹ 198 more rows
#> # ℹ abbreviated names: ¹​`(year(Quarter) < 1970)_TRUE/trend(2)`,
#> #   ²​`(year(Quarter) < 1970)_FALSE/trend(2)`
#> # ℹ 1 more variable: `fourier("year")` <dbl>
…
FASSTER handles missing values naturally during estimation. The
Kalman filter simply skips updating states when data is missing:

# Model works even with missing values
data_with_na <- gas_data |>
  # Insert some missing values randomly
  mutate(Gas = if_else(row_number() %in% sample(n(), 10), NA_real_, Gas))

fit_na <- data_with_na |>
  model(FASSTER(Gas ~ (year(Quarter) < 1970) %S% trend(2) + fourier("year", K = 2)))

# Interpolate missing values
fit_na |> 
  interpolate(data_with_na)
#> # A tsibble: 218 x 2 [1Q]
#>    Quarter   Gas
#>      <qtr> <dbl>
#>  1 1956 Q1   5  
#>  2 1956 Q2   6  
#>  3 1956 Q3  23.6
#>  4 1956 Q4   6  
#>  5 1957 Q1   5  
#>  6 1957 Q2   7  
#>  7 1957 Q3  22.1
#>  8 1957 Q4   6  
#>  9 1958 Q1   5  
#> 10 1958 Q2   7  
#> # ℹ 208 more rows
…
